# Blender v2.73 (sub 0) OBJ File: 'Table.blend'
# www.blender.org
mtllib Table_top.mtl
o Plane
v -1.216953 2.044075 2.058485
v 1.544810 2.044075 2.058485
v -1.216953 2.044075 -2.058485
v 1.544810 2.044075 -2.058485
v -1.216953 1.950796 2.058485
v 1.544810 1.950796 2.058485
v -1.216953 1.950796 -2.058485
v 1.544810 1.950796 -2.058485
vt 0.951780 0.000000
vt 0.951780 0.745352
vt 0.475890 0.745352
vt 0.000000 0.000000
vt 0.475890 0.000000
vt 0.983927 0.500000
vt 0.983927 0.000000
vt 1.000000 0.000000
vt 0.967853 0.000000
vt 0.967853 0.745352
vt 0.983927 1.000000
vt 1.000000 0.500000
vt 0.983927 0.745352
vt 0.000000 0.745352
vt 1.000000 1.000000
vn 0.000000 1.000000 0.000000
vn 0.000000 -1.000000 0.000000
vn 0.000000 0.000000 -1.000000
vn 1.000000 0.000000 0.000000
vn 0.000000 0.000000 1.000000
vn -1.000000 0.000000 0.000000
usemtl None
s off
f 2/1/1 4/2/1 3/3/1
f 7/4/2 8/5/2 6/3/2
f 8/6/3 7/7/3 3/8/3
f 6/9/4 8/10/4 4/2/4
f 5/11/5 6/6/5 2/12/5
f 7/7/6 5/13/6 1/10/6
f 1/5/1 2/1/1 3/3/1
f 5/14/2 7/4/2 6/3/2
f 4/12/3 8/6/3 3/8/3
f 2/1/4 6/9/4 4/2/4
f 1/15/5 5/11/5 2/12/5
f 3/9/6 7/7/6 1/10/6
